\relax 
\select@language{romanian}
\@writefile{toc}{\select@language{romanian}}
\@writefile{lof}{\select@language{romanian}}
\@writefile{lot}{\select@language{romanian}}
\select@language{romanian}
\@writefile{toc}{\select@language{romanian}}
\@writefile{lof}{\select@language{romanian}}
\@writefile{lot}{\select@language{romanian}}
\@writefile{toc}{\contentsline {chapter}{\numberline {1}Introducere}{3}}
\@writefile{lof}{\addvspace {10\p@ }}
\@writefile{lot}{\addvspace {10\p@ }}
\@writefile{toc}{\contentsline {section}{\numberline {1.1}Motiva\IeC {{\textcommabelow t}}ie}{4}}
\@writefile{toc}{\contentsline {chapter}{\numberline {2}Concepte}{6}}
\@writefile{lof}{\addvspace {10\p@ }}
\@writefile{lot}{\addvspace {10\p@ }}
\@writefile{toc}{\contentsline {section}{\numberline {2.1}Machine Learning}{6}}
\citation{networksanddeeplearning}
\@writefile{lof}{\contentsline {figure}{\numberline {2.1}{\ignorespaces Handwritten digits\cite  {networksanddeeplearning}}}{7}}
\@writefile{toc}{\contentsline {section}{\numberline {2.2}\IeC {\^I}nv\IeC {\u a}\IeC {{\textcommabelow t}}are supervizat\IeC {\u a}}{8}}
\citation{networksanddeeplearning}
\@writefile{toc}{\contentsline {section}{\numberline {2.3}Perceptron}{11}}
\@writefile{lof}{\contentsline {figure}{\numberline {2.2}{\ignorespaces Perceptron\cite  {networksanddeeplearning} }}{11}}
\citation{networksanddeeplearning}
\@writefile{lof}{\contentsline {figure}{\numberline {2.3}{\ignorespaces Re\IeC {{\textcommabelow t}}ea de perceptroni\cite  {networksanddeeplearning}}}{13}}
\citation{networksanddeeplearning}
\@writefile{toc}{\contentsline {subsection}{\numberline {2.3.1}Neuron Sigmoid}{14}}
\@writefile{lof}{\contentsline {figure}{\numberline {2.4}{\ignorespaces Impactul schimb\IeC {\u a}rii coeficien\IeC {{\textcommabelow t}}ilor\cite  {networksanddeeplearning}}}{15}}
\citation{networksanddeeplearning}
\citation{networksanddeeplearning}
\@writefile{toc}{\contentsline {section}{\numberline {2.4}Re\IeC {{\textcommabelow t}}ele neuronale}{17}}
\@writefile{lof}{\contentsline {figure}{\numberline {2.5}{\ignorespaces Re\IeC {{\textcommabelow t}}ea neuronal\IeC {\u a}\cite  {networksanddeeplearning}}}{17}}
\@writefile{lof}{\contentsline {figure}{\numberline {2.6}{\ignorespaces Re\IeC {{\textcommabelow t}}ea neuronal\IeC {\u a} cu 4 straturi\cite  {networksanddeeplearning}}}{18}}
\citation{networksanddeeplearning}
\@writefile{toc}{\contentsline {section}{\numberline {2.5}Re\IeC {{\textcommabelow t}}ele neuronale convolu\IeC {{\textcommabelow t}}ionale}{19}}
\@writefile{toc}{\contentsline {paragraph}{Zone locale receptive}{19}}
\citation{networksanddeeplearning}
\@writefile{lof}{\contentsline {figure}{\numberline {2.7}{\ignorespaces Zon\IeC {\u a} local\IeC {\u a} receptiv\IeC {\u a}\cite  {networksanddeeplearning}}}{20}}
\citation{networksanddeeplearning}
\@writefile{lof}{\contentsline {figure}{\numberline {2.8}{\ignorespaces Strat de input conectat\cite  {networksanddeeplearning}}}{21}}
\citation{networksanddeeplearning}
\@writefile{lof}{\contentsline {figure}{\numberline {2.9}{\ignorespaces Strat de input conectat la primul strat de neuroni ascuns\cite  {networksanddeeplearning}}}{22}}
\@writefile{lof}{\contentsline {figure}{\numberline {2.10}{\ignorespaces Strat de input conectat la primul strat de neuroni ascuns\cite  {networksanddeeplearning}}}{22}}
\citation{networksanddeeplearning}
\@writefile{toc}{\contentsline {paragraph}{Coeficien\IeC {{\textcommabelow t}}i \IeC {{\textcommabelow s}}i bias \IeC {\^\i }mp\IeC {\u a}rt\IeC {\u a}\IeC {{\textcommabelow s}}i\IeC {{\textcommabelow t}}i}{23}}
\@writefile{lof}{\contentsline {figure}{\numberline {2.11}{\ignorespaces Feature map\cite  {networksanddeeplearning}}}{24}}
\@writefile{toc}{\contentsline {paragraph}{Straturile de pooling}{24}}
\citation{networksanddeeplearning}
\citation{networksanddeeplearning}
\@writefile{lof}{\contentsline {figure}{\numberline {2.12}{\ignorespaces Pooling\cite  {networksanddeeplearning}}}{25}}
\@writefile{lof}{\contentsline {figure}{\numberline {2.13}{\ignorespaces Model de arhitectur\IeC {\u a}\cite  {networksanddeeplearning}}}{26}}
\@writefile{toc}{\contentsline {chapter}{\numberline {3}Tema abordat\IeC {\u a}}{27}}
\@writefile{lof}{\addvspace {10\p@ }}
\@writefile{lot}{\addvspace {10\p@ }}
\@writefile{toc}{\contentsline {chapter}{\numberline {4}Aplica\IeC {{\textcommabelow t}}ie}{28}}
\@writefile{lof}{\addvspace {10\p@ }}
\@writefile{lot}{\addvspace {10\p@ }}
\@writefile{toc}{\contentsline {section}{\numberline {4.1}Tehnologii}{28}}
\@writefile{toc}{\contentsline {paragraph}{Python}{28}}
\@writefile{toc}{\contentsline {paragraph}{Tensorflow}{29}}
\@writefile{toc}{\contentsline {paragraph}{Keras}{29}}
\@writefile{toc}{\contentsline {paragraph}{GTK}{29}}
\@writefile{toc}{\contentsline {section}{\numberline {4.2}Structura}{30}}
\@writefile{toc}{\contentsline {paragraph}{models}{30}}
\@writefile{toc}{\contentsline {paragraph}{train}{31}}
\@writefile{toc}{\contentsline {paragraph}{validation}{31}}
\@writefile{toc}{\contentsline {paragraph}{config.json}{31}}
\@writefile{toc}{\contentsline {paragraph}{preprocessing.py}{31}}
\@writefile{toc}{\contentsline {paragraph}{recorder.py}{31}}
\@writefile{toc}{\contentsline {paragraph}{constants.py}{32}}
\@writefile{toc}{\contentsline {paragraph}{predict.py}{32}}
\@writefile{toc}{\contentsline {paragraph}{train.py}{32}}
\@writefile{toc}{\contentsline {paragraph}{utils.py}{32}}
\@writefile{toc}{\contentsline {section}{\numberline {4.3}Detalii de implementare}{33}}
\@writefile{toc}{\contentsline {subsection}{\numberline {4.3.1}Detec\IeC {{\textcommabelow t}}ie unificat\IeC {\u a}}{34}}
\citation{yolov2}
\@writefile{toc}{\contentsline {subsection}{\numberline {4.3.2}Arhitectura re\IeC {{\textcommabelow t}}elei}{35}}
\@writefile{lof}{\contentsline {figure}{\numberline {4.1}{\ignorespaces Arhitectur\IeC {\u a}\cite  {yolov2}}}{35}}
\@writefile{toc}{\contentsline {subsection}{\numberline {4.3.3}\IeC {\^I}nv\IeC {\u a}\IeC {{\textcommabelow t}}are}{35}}
\@writefile{toc}{\contentsline {section}{\numberline {4.4}Antrenarea re\IeC {{\textcommabelow t}}elei}{37}}
\@writefile{toc}{\contentsline {section}{\numberline {4.5}Rezultate}{38}}
\@writefile{toc}{\contentsline {chapter}{\numberline {5}Aplicabilitate}{39}}
\@writefile{lof}{\addvspace {10\p@ }}
\@writefile{lot}{\addvspace {10\p@ }}
\citation{wikipediaac}
\@writefile{toc}{\contentsline {section}{\numberline {5.1}Ma\IeC {{\textcommabelow s}}ini autonome}{40}}
\@writefile{toc}{\contentsline {section}{\numberline {5.2}Drone}{41}}
\@writefile{toc}{\contentsline {chapter}{\numberline {6}Concluzie}{42}}
\@writefile{lof}{\addvspace {10\p@ }}
\@writefile{lot}{\addvspace {10\p@ }}
\bibcite{braml}{1}
\bibcite{50yearsobject}{2}
\bibcite{yolo}{3}
\bibcite{yolov2}{4}
\bibcite{networksanddeeplearning}{5}
\bibcite{wikipediaac}{6}
\bibcite{wikipediauae}{7}
\bibcite{wikipythone}{8}
